                              
00200ARMEES                    
00201ARMEES                    
00202ARMEES                    
00203ARMEES                    
00204ARMEES                    
00205ARMEES                    
00206ARMEES                    
00207ARMEES                    
00208ARMEES